Explorando os resultados da mega-sena • est031
…
dezenas <- download_megasena("dezenas")
glimpse(dezenas)
#> Rows: 15,294
#> Columns: 4
#> $ data     <date> 1996-03-11, 1996-03-11, 1996-03-11, 1996-03-11, 1996-03-11, …
#> $ concurso <int> 1, 1, 1, 1, 1, 1, 2, 2, 2, 2, 2, 2, 3, 3, 3, 3, 3, 3, 4, 4, 4…
#> $ acumula  <chr> "sim", "sim", "sim", "sim", "sim", "sim", "não", "não", "não"…
#> $ dezenas  <fct> 04, 05, 30, 33, 41, 52, 09, 37, 39, 41, 43, 49, 10, 11, 29, 3…

fct_count(dezenas$dezenas, prop = TRUE) %>%
  arrange(desc(n))
#> # A tibble: 60 × 3
#>    f         n      p
#>    <fct> <int>  <dbl>
#>  1 53      294 0.0192
#>  2 10      292 0.0191
#>  3 05      281 0.0184
#>  4 37      278 0.0182
#>  5 33      276 0.0180
#>  6 42      276 0.0180
#>  7 23      275 0.0180
#>  8 04      272 0.0178
#>  9 30      272 0.0178
#> 10 41      272 0.0178
#> # … with 50 more rows
…
